{
  "project_info": {
    "project_number": "375503004975",
    "firebase_url": "https://push-notification-c1fb8.firebaseio.com",
    "project_id": "push-notification-c1fb8",
    "storage_bucket": "push-notification-c1fb8.appspot.com"
  },
  "client": [
    {
      "client_info": {
        "mobilesdk_app_id": "1:375503004975:android:de13214cff267804cfedda",
        "android_client_info": {
          "package_name": "io.grocary.app"
        }
      },
      "oauth_client": [
        {
          "client_id": "375503004975-v35q1hubomf8pugvj6ktn5jb13ojkqhs.apps.googleusercontent.com",
          "client_type": 3
        }
      ],
      "api_key": [
        {
          "current_key": "AIzaSyBBWVgwENLAH55o1DGn3hIfyfGwtC23aNs"
        }
      ],
      "services": {
        "appinvite_service": {
          "other_platform_oauth_client": [
            {
              "client_id": "375503004975-v35q1hubomf8pugvj6ktn5jb13ojkqhs.apps.googleusercontent.com",
              "client_type": 3
            }
          ]
        }
      }
    }
  ],
  "configuration_version": "1"
}